 {
     "accountHolder": "eu",
     "currentBalance": 55,
     "iban": "iban",
     "currency": "currency",
     "transactions": [{
             "amount": 66,
             "transactionType": "tip",
             "beneficiaryName": "nume",
             "approved": true
         },
         {
             "amount": 66,
             "transactionType": "tip",
             "beneficiaryName": "nume",
             "approved": true
         }
     ]
 }
 